{
  "type": "service_account",
  "project_id": "argon-rider-266718",
  "private_key_id": "1c55fe4b1e8dde3e767ef91c81db576930460ce4",
  "private_key": "-----BEGIN PRIVATE KEY-----\nMIIEvQIBADANBgkqhkiG9w0BAQEFAASCBKcwggSjAgEAAoIBAQDVl6PMb01Fix5T\nLlOuKtQg27u0HbU2G2FRa7qkQODKV4dxyopEEyop6gtzd056YKA+f5TgL7sst1JT\nzzVs0ZeQD6P0mXclccU0zRcKPVOVIFQW6FLZ/ZEpoh9NuWaRcuAWSWgI+ZfuSt8M\neudmoo5O9C9Dzocen/Aoz9PHAhNjX3HOZdOFsWscA1fzpMe+7QBNHWppv218vfKY\nh6GfY2q3c25ecKBy8yPpe185Zf+y/WEhwF+NjqYi56IVJFbWOy94f97IKcF7YqOP\nvONLwcb8+pZznUncfiYbelxs4UDMGpbVKNWERlGQ9hGhoITVJW8uv73aALdSmvSy\ngfusm0wRAgMBAAECggEANHprbkEydRG3Q6ywNqyjLeeO+LQL391eTcjwNIcUM+LJ\njnW6/vrOcznj0lzP1VWESZbDF0ni7RuliJ3yfGgKmwScve4uze5kC5MQRB3JOWyV\n/ILcSF76mYYRtuEEiFv3HsKuYvYgFBYlM0XHMPpjiJaKPlix7h5RvVVCrTSfWtyX\ngHp8cpj6IvO3e12eo8i6lAdzdBw0t0RydXJDRzLepqR8hXpEoNPAmQG0m9Htq2CG\nh1/eoVfNdJKHLLJ7KKlBMHdFEGuGrJV5SyCtBzTQwszaaZ+LcLMT4uRP+UxoUk8w\nFbv0+Ay3YXsLQTBbg45DfL1jaVz4ZX+GSuolNFx42QKBgQDwYzZvxCWOqXybX/Tb\nUdVy9M8GDwomITaFoKEfx8xhj24VXZpnBa3rMzQH+hTapwOA8ezSt+SIq7LGqHal\npSQ/CdXTTqOZSnmpbzXcpiGEztt7tn2GL/kO31Vj+48X1kGPmU3J+RivyxMfY7jq\n3srBzRKjXuiF6JQMvak/3RgIhwKBgQDjdusjUUd8OtoBwCdzELsclGcTLs0tWxC7\nEG+7mDczfHz7fO3ZGG3eHAZy2txcgyYz4P6ahR12hh6ihQpqVEhaxFGfwBrKvLBI\n0NgLAUzSrFTCTYxNq5brc1djIPaO2/j6b8erW1QNVxDx+9YJw1K2HB8gSazprAoW\n0ZOSl99kpwKBgHLry2OFTzsztbmGF0Yeij/J34sS95Qg/rLFhyHtX70oV8VpGV61\nLV8q/G3v1bZub9NeVQysE1pvUyl78jTgjUKBzjKV/spS+3TQENzqo02dovoy1TGo\nj5XXmTgSVGdd67vd2316U53/JKY2A3pthls+UfG+dsVF2jl5FofMiCfTAoGACo/D\n/UDR4+fLpZcpfcNCHOKbIp3isv9ueHEb7wbzUTWvi/HSDWl/+HcuqXiWEMmaJYCF\n8eDKbG1v0LYCtMszDNveul8uH0nBma/wyBoIWiPcT6VQJW8ZM9eIMDcgm6OFHQPB\nrqgv7+qiA8pgttVV6tTFcTdaiwMM+OBETOM2YTMCgYEAsDo2LIR3MXss4KuKQFYv\nfS5JF14dpcUQJ2FpFIL/7vhEvBLDSOVx9GraPHK35ARLjGsctxuLYdumDguiIb2m\nE0BRq1AyTasmR8Qp0bUKSL1Bi/+PVvgvwTYQuG0A6JDj7bLmEgiUYnRQML3j4j7P\nJA58fDdqv7OUU9YePgIDn28=\n-----END PRIVATE KEY-----\n",
  "client_email": "hlp-360@argon-rider-266718.iam.gserviceaccount.com",
  "client_id": "110480857229609343232",
  "auth_uri": "https://accounts.google.com/o/oauth2/auth",
  "token_uri": "https://oauth2.googleapis.com/token",
  "auth_provider_x509_cert_url": "https://www.googleapis.com/oauth2/v1/certs",
  "client_x509_cert_url": "https://www.googleapis.com/robot/v1/metadata/x509/hlp-360%40argon-rider-266718.iam.gserviceaccount.com",
  "installed": {
    "client_id": "491683038245-ndfuk7b0i2jm3fmqhf009b65ri49b15q.apps.googleusercontent.com",
    "project_id": "argon-rider-266718",
    "auth_uri": "https://accounts.google.com/o/oauth2/auth",
    "token_uri": "https://oauth2.googleapis.com/token",
    "auth_provider_x509_cert_url": "https://www.googleapis.com/oauth2/v1/certs",
    "client_secret": "yg0OIC5BlZazllrnOR-MWNaP",
    "redirect_uris": ["urn:ietf:wg:oauth:2.0:oob", "http://localhost"]
  }
}
